<?xml version="1.0" encoding="UTF-8" standalone="no"?>
<!-- Generator: Adobe Illustrator 19.0.0, SVG Export Plug-In . SVG Version: 6.00 Build 0)  -->

<svg
   xmlns:dc="http://purl.org/dc/elements/1.1/"
   xmlns:cc="http://creativecommons.org/ns#"
   xmlns:rdf="http://www.w3.org/1999/02/22-rdf-syntax-ns#"
   xmlns:svg="http://www.w3.org/2000/svg"
   xmlns="http://www.w3.org/2000/svg"
   xmlns:sodipodi="http://sodipodi.sourceforge.net/DTD/sodipodi-0.dtd"
   xmlns:inkscape="http://www.inkscape.org/namespaces/inkscape"
   version="1.1"
   id="Capa_1"
   x="0px"
   y="0px"
   viewBox="0 0 125.90568 150"
   xml:space="preserve"
   sodipodi:docname="samcleaner-logo-small.svg"
   width="125.90568"
   height="150"
   inkscape:version="0.92.4 (unknown)"><metadata
   id="metadata53"><rdf:RDF><cc:Work
       rdf:about=""><dc:format>image/svg+xml</dc:format><dc:type
         rdf:resource="http://purl.org/dc/dcmitype/StillImage" /><dc:title></dc:title><cc:license
         rdf:resource="http://creativecommons.org/publicdomain/zero/1.0/" /></cc:Work><cc:License
       rdf:about="http://creativecommons.org/publicdomain/zero/1.0/"><cc:permits
         rdf:resource="http://creativecommons.org/ns#Reproduction" /><cc:permits
         rdf:resource="http://creativecommons.org/ns#Distribution" /><cc:permits
         rdf:resource="http://creativecommons.org/ns#DerivativeWorks" /></cc:License></rdf:RDF></metadata><defs
   id="defs51">
	
	
	
	
</defs><sodipodi:namedview
   pagecolor="#ffffff"
   bordercolor="#666666"
   borderopacity="1"
   objecttolerance="10"
   gridtolerance="10"
   guidetolerance="10"
   inkscape:pageopacity="0"
   inkscape:pageshadow="2"
   inkscape:window-width="2202"
   inkscape:window-height="1336"
   id="namedview49"
   showgrid="false"
   fit-margin-top="0"
   fit-margin-left="0"
   fit-margin-right="0"
   fit-margin-bottom="0"
   inkscape:zoom="1.84"
   inkscape:cx="115.20412"
   inkscape:cy="81.583109"
   inkscape:window-x="165"
   inkscape:window-y="34"
   inkscape:window-maximized="0"
   inkscape:current-layer="Capa_1" />


<g
   id="g18"
   transform="translate(-42.727,-358.31624)">
</g>
<g
   id="g20"
   transform="translate(-42.727,-358.31624)">
</g>
<g
   id="g22"
   transform="translate(-42.727,-358.31624)">
</g>
<g
   id="g24"
   transform="translate(-42.727,-358.31624)">
</g>
<g
   id="g26"
   transform="translate(-42.727,-358.31624)">
</g>
<g
   id="g28"
   transform="translate(-42.727,-358.31624)">
</g>
<g
   id="g30"
   transform="translate(-42.727,-358.31624)">
</g>
<g
   id="g32"
   transform="translate(-42.727,-358.31624)">
</g>
<g
   id="g34"
   transform="translate(-42.727,-358.31624)">
</g>
<g
   id="g36"
   transform="translate(-42.727,-358.31624)">
</g>
<g
   id="g38"
   transform="translate(-42.727,-358.31624)">
</g>
<g
   id="g40"
   transform="translate(-42.727,-358.31624)">
</g>
<g
   id="g42"
   transform="translate(-42.727,-358.31624)">
</g>
<g
   id="g44"
   transform="translate(-42.727,-358.31624)">
</g>
<g
   id="g46"
   transform="translate(-42.727,-358.31624)">
</g>
<g
   id="g3803"
   transform="scale(0.2950919)"><path
     style="fill:#4caf50"
     d="m 32,170.78699 c -17.673,0 -32,14.327 -32,32 v 149.333 c 0,17.673 14.327,32 32,32 17.673,0 32,-14.327 32,-32 v -149.333 c 0,-17.673 -14.327,-32 -32,-32 z"
     id="path2"
     inkscape:connector-curvature="0" /><path
     style="fill:#4caf50"
     d="m 394.666,170.78699 c -17.673,0 -32,14.327 -32,32 v 149.333 c 0,17.673 14.327,32 32,32 17.673,0 32,-14.327 32,-32 v -149.333 c 0,-17.673 -14.326,-32 -32,-32 z"
     id="path4"
     inkscape:connector-curvature="0" /><path
     style="fill:#4caf50"
     d="m 290.88,44.322992 26.005,-25.984 c 4.237,-4.093 4.354,-10.8450003 0.262,-15.0830003 -4.093,-4.23700003 -10.845,-4.354 -15.083,-0.262 -0.089,0.086 -0.176,0.173 -0.262,0.262 L 271.509,33.549992 c -37.102,-16.117 -79.229,-16.117 -116.331,0 L 124.885,3.2349917 c -4.237,-4.09300003 -10.99,-3.97500003 -15.083,0.262 -3.992,4.134 -3.992,10.6870003 0,14.8200003 l 25.984,26.005 c -31.677,20.96 -50.649,56.480998 -50.453,94.463998 0,5.891 4.776,10.667 10.667,10.667 h 234.667 c 5.891,0 10.667,-4.776 10.667,-10.667 0.195,-37.982 -18.777,-73.502998 -50.454,-94.462998 z"
     id="path8"
     inkscape:connector-curvature="0" /><g
     transform="translate(-42.727,-8.3290125e-6)"
     id="g16">
	<circle
   id="circle12"
   r="10.667"
   cy="96.120003"
   cx="202.72701"
   style="fill:#fafafa" />
	<circle
   id="circle14"
   r="10.667"
   cy="96.120003"
   cx="309.39301"
   style="fill:#fafafa" />
</g><g
     transform="matrix(0.96827161,0,0,0.96827161,-893.55795,445.2806)"
     id="g3784"><path
       inkscape:connector-curvature="0"
       style="fill:#23a24d;stroke-width:6.71071005"
       d="m 1277.3758,-277.14503 -13.1261,315.403375 c 0,0 -0.5705,26.842841 -26.2256,26.842841 h -97.9494 -0.396 -91.3797 c -25.6551,0 -26.2255,-26.842841 -26.2255,-26.842841 l -13.1261,-315.403375"
       id="path2-3" /><path
       inkscape:connector-curvature="0"
       style="fill:none;stroke:#33636c;stroke-width:13.4214201;stroke-miterlimit:10"
       d="m 1196.8406,-277.14503 c 0,0 1.0468,-40.26426 -26.8429,-40.26426 h -33.9629 0.8187 -33.9562 c -27.8897,0 -26.8428,40.26426 -26.8428,40.26426"
       id="path4-6" /><line
       style="fill:none;stroke:#61b872;stroke-width:13.4214201;stroke-linecap:round;stroke-linejoin:round;stroke-miterlimit:10"
       x1="1143.1616"
       y1="-210.03781"
       x2="1143.1616"
       y2="11.415634"
       id="line6" /><line
       style="fill:none;stroke:#61b872;stroke-width:13.4214201;stroke-linecap:round;stroke-linejoin:round;stroke-miterlimit:10"
       x1="1076.0546"
       y1="-210.03781"
       x2="1076.0546"
       y2="11.415634"
       id="line8" /><line
       style="fill:none;stroke:#61b872;stroke-width:13.4214201;stroke-linecap:round;stroke-linejoin:round;stroke-miterlimit:10"
       x1="1210.2688"
       y1="-210.03781"
       x2="1210.2688"
       y2="11.415634"
       id="line10" /><line
       style="fill:none;stroke:#33636c;stroke-width:13.4214201;stroke-linecap:round;stroke-linejoin:round;stroke-miterlimit:10"
       x1="988.81531"
       y1="-277.14493"
       x2="1297.5079"
       y2="-277.14493"
       id="line12" /></g></g></svg>